name: Products
description: ''
endpoints:
  -
    httpMethods:
      - GET
    uri: api/products
    metadata:
      groupName: Products
      groupDescription: ''
      subgroup: ''
      subgroupDescription: ''
      title: 'Get paginated products'
      description: ''
      authenticated: false
      custom: []
    headers:
      Content-Type: application/json
      Accept: application/json
    urlParameters: []
    cleanUrlParameters: []
    queryParameters:
      per_page:
        name: per_page
        description: 'Items per page. Default: 16'
        required: false
        example: 16
        type: integer
        enumValues: []
        exampleWasSpecified: false
        nullable: false
        custom: []
      page:
        name: page
        description: 'Page number. Default: 1'
        required: false
        example: 16
        type: integer
        enumValues: []
        exampleWasSpecified: false
        nullable: false
        custom: []
    cleanQueryParameters:
      per_page: 16
      page: 16
    bodyParameters: []
    cleanBodyParameters: []
    fileParameters: []
    responses:
      -
        status: 200
        content: |-
          {
            "success": true,
            "message": "Products retrieved successfully",
            "data": [
              {
                "id": 1,
                "name": "Product Name",
                "description": "Product Description",
                "price": 19.99,
                "image_url": "https://pet-clinic.hexagun.mx/products_demo_images/cats/1.jpg",
                "stock": 100,
                "created_at": "2023-01-01T00:00:00.000000Z",
                "updated_at": "2023-01-01T00:00:00.000000Z"
              }
            ],
            "meta": {
              "current_page": 1,
              "from": 1,
              "last_page": 5,
              "per_page": 16,
              "to": 16,
              "total": 80
            }
          }
        headers: []
        description: ''
        custom: []
    responseFields: []
    auth: []
    controller: null
    method: null
    route: null
    custom: []
  -
    httpMethods:
      - GET
    uri: api/products/infinite
    metadata:
      groupName: Products
      groupDescription: ''
      subgroup: ''
      subgroupDescription: ''
      title: 'Get infinite scroll products with search functionality'
      description: ''
      authenticated: false
      custom: []
    headers:
      Content-Type: application/json
      Accept: application/json
    urlParameters: []
    cleanUrlParameters: []
    queryParameters:
      per_page:
        name: per_page
        description: 'Items per page. Default: 10'
        required: false
        example: 16
        type: integer
        enumValues: []
        exampleWasSpecified: false
        nullable: false
        custom: []
      page:
        name: page
        description: 'Page number. Default: 1'
        required: false
        example: 16
        type: integer
        enumValues: []
        exampleWasSpecified: false
        nullable: false
        custom: []
      search:
        name: search
        description: 'Search term to filter products by name or description'
        required: false
        example: architecto
        type: string
        enumValues: []
        exampleWasSpecified: false
        nullable: false
        custom: []
    cleanQueryParameters:
      per_page: 16
      page: 16
      search: architecto
    bodyParameters: []
    cleanBodyParameters: []
    fileParameters: []
    responses:
      -
        status: 200
        content: |-
          {
            "data": [
              {
                "id": 1,
                "name": "Blue Buffalo Digestive Care Cat Food",
                "description": "Premium cat food for digestive health",
                "price": 19.99,
                "image_url": "https://pet-clinic.hexagun.mx/products_demo_images/cats/1.jpg",
                "stock": 100,
                "created_at": "2023-01-01T00:00:00.000000Z",
                "updated_at": "2023-01-01T00:00:00.000000Z"
              }
            ],
            "meta": {
              "current_page": 1,
              "last_page": 1,
              "per_page": 10,
              "total": 1,
              "search_term": "blue buffalo"
            }
          }
        headers: []
        description: ''
        custom: []
    responseFields: []
    auth: []
    controller: null
    method: null
    route: null
    custom: []
  -
    httpMethods:
      - GET
    uri: 'api/products/category/{categoryId}'
    metadata:
      groupName: Products
      groupDescription: ''
      subgroup: ''
      subgroupDescription: ''
      title: 'Get products by category'
      description: ''
      authenticated: false
      custom: []
    headers:
      Content-Type: application/json
      Accept: application/json
    urlParameters:
      categoryId:
        name: categoryId
        description: 'The ID of the category.'
        required: true
        example: 1
        type: integer
        enumValues: []
        exampleWasSpecified: true
        nullable: false
        custom: []
    cleanUrlParameters:
      categoryId: 1
    queryParameters: []
    cleanQueryParameters: []
    bodyParameters: []
    cleanBodyParameters: []
    fileParameters: []
    responses:
      -
        status: 200
        content: |-
          {
            "success": true,
            "message": "Products by category retrieved successfully",
            "data": [
              {
                "id": 1,
                "name": "Product Name",
                "description": "Product Description",
                "price": 19.99,
                "stock": 100,
                "created_at": "2023-01-01T00:00:00.000000Z",
                "updated_at": "2023-01-01T00:00:00.000000Z"
              }
            ]
          }
        headers: []
        description: ''
        custom: []
    responseFields: []
    auth: []
    controller: null
    method: null
    route: null
    custom: []
  -
    httpMethods:
      - GET
    uri: 'api/products/clinic/{clinicId}'
    metadata:
      groupName: Products
      groupDescription: ''
      subgroup: ''
      subgroupDescription: ''
      title: 'Get products by clinic'
      description: ''
      authenticated: false
      custom: []
    headers:
      Content-Type: application/json
      Accept: application/json
    urlParameters:
      clinicId:
        name: clinicId
        description: 'The ID of the clinic.'
        required: true
        example: 1
        type: integer
        enumValues: []
        exampleWasSpecified: true
        nullable: false
        custom: []
    cleanUrlParameters:
      clinicId: 1
    queryParameters: []
    cleanQueryParameters: []
    bodyParameters: []
    cleanBodyParameters: []
    fileParameters: []
    responses:
      -
        status: 200
        content: |-
          {
            "success": true,
            "message": "Products by clinic retrieved successfully",
            "data": [
              {
                "id": 1,
                "name": "Product Name",
                "description": "Product Description",
                "price": 19.99,
                "stock": 100,
                "created_at": "2023-01-01T00:00:00.000000Z",
                "updated_at": "2023-01-01T00:00:00.000000Z"
              }
            ]
          }
        headers: []
        description: ''
        custom: []
    responseFields: []
    auth: []
    controller: null
    method: null
    route: null
    custom: []
  -
    httpMethods:
      - GET
    uri: 'api/products/{id}'
    metadata:
      groupName: Products
      groupDescription: ''
      subgroup: ''
      subgroupDescription: ''
      title: 'Get a specific product by ID'
      description: ''
      authenticated: false
      custom: []
    headers:
      Content-Type: application/json
      Accept: application/json
    urlParameters:
      id:
        name: id
        description: 'The ID of the product.'
        required: true
        example: 1
        type: integer
        enumValues: []
        exampleWasSpecified: true
        nullable: false
        custom: []
    cleanUrlParameters:
      id: 1
    queryParameters: []
    cleanQueryParameters: []
    bodyParameters: []
    cleanBodyParameters: []
    fileParameters: []
    responses:
      -
        status: 200
        content: |-
          {
            "success": true,
            "message": "Product retrieved successfully",
            "data": {
              "id": 1,
              "name": "Product Name",
              "description": "Product Description",
              "price": 19.99,
              "stock": 100,
              "created_at": "2023-01-01T00:00:00.000000Z",
              "updated_at": "2023-01-01T00:00:00.000000Z",
              "category": {
                "id": 1,
                "name": "Category Name"
              },
              "clinic": {
                "id": 1,
                "name": "Clinic Name"
              }
            }
          }
        headers: []
        description: ''
        custom: []
      -
        status: 404
        content: |-
          {
            "success": false,
            "message": "Product not found",
            "data": null
          }
        headers: []
        description: ''
        custom: []
    responseFields: []
    auth: []
    controller: null
    method: null
    route: null
    custom: []
